<svg width="198" height="56" viewBox="0 0 198 56" fill="none" xmlns="http://www.w3.org/2000/svg">
<g clip-path="url(#clip0_232_2762)">
<path d="M46.7335 34.4524L31.3105 26.8395L30.6962 27.2179L30.2287 26.7679L14.6589 34.4524L14.0446 35.4386L14.4192 36.3057L29.3148 43.6564H30.6962H32.0776L46.9702 36.3057L47.3478 35.4386L46.7335 34.4524Z" fill="#95001A"/>
<path d="M14.0446 35.4386L30.6962 43.6564V44.3387L19.9058 49.6663H18.5214L14.0446 47.4256L13.4303 46.5138V36.4219L14.0446 35.4386Z" fill="#40004D"/>
<path d="M47.3478 35.4386L30.7022 43.6564V44.3387L41.4926 49.6663H42.877L47.3538 47.4256L47.968 46.5138V36.4219L47.3478 35.4386Z" fill="#520033"/>
<path d="M47.3538 19.0954L46.7395 19.4768V34.4523L47.3478 35.4386L47.9681 36.4219L58.0333 41.3889H59.4147L61.3984 40.3967L47.3538 19.0954Z" fill="#FFA80A"/>
<path d="M14.0446 19.0954L14.6589 19.4768V34.4523L14.0446 35.4386L13.4303 36.4219L3.36507 41.3889H1.98369L0 40.3967L14.0446 19.0954Z" fill="#FF3417"/>
<path d="M14.0446 47.4256L1.98368 41.3889L14.0446 35.4386V47.4256Z" fill="#6D0044"/>
<path d="M30.6962 55.7566L42.868 49.6663L30.6962 43.6564L18.5214 49.6663L30.6962 55.7566Z" fill="#6D0074"/>
<path d="M47.3538 47.4256L59.4147 41.3889L47.3478 35.4386L47.3538 47.4256Z" fill="#6D0044"/>
<path d="M30.6992 0.243347H26.4771L14.0446 19.0954L14.6589 19.4768L30.6962 11.5599V10.8776L31.3105 10.4515L31.3135 0.776699L30.6992 0.243347Z" fill="#FFA80A"/>
<path d="M30.6962 10.8776L14.0446 19.0954V35.4386L30.6962 27.2179L31.3105 26.8394V11.8609L30.6962 10.8776Z" fill="#D7001F"/>
<path d="M30.6992 0.243347H34.9213L47.3538 19.0954L46.7395 19.4768L31.3105 11.8609L30.6962 10.8776L30.6992 0.243347Z" fill="#FFE50A"/>
<path d="M47.3478 35.4386L30.6962 27.2179V10.8776L47.3478 19.0954V35.4386Z" fill="#EF8109"/>
<path d="M163.552 16.5777L150.892 45.8077H145.181L132.52 16.5777H139.712L148.066 36.2968L156.364 16.5777H163.552ZM86.1135 35.4923V5.69012H79.1557V36.407C79.1557 42.3782 82.3919 45.8047 88.3759 45.8047H95.6334V39.5207H89.3558C87.438 39.5207 86.1135 38.2901 86.1135 35.4923ZM132.52 40.4504V45.912C131.571 46.3291 130.354 46.5466 129.215 46.5466C125.521 46.5466 123.282 44.2821 122.722 41.5647L122.74 41.4992C120.915 45.0956 116.669 46.5466 112.746 46.5466C104.117 46.5466 98.0756 39.7889 98.0756 31.3804C98.0756 22.9719 104.407 15.943 112.746 15.943C117.094 15.943 120.187 17.698 122.087 21.0709V21.062V16.5777H129.044V37.1489C129.044 38.3795 129.209 39.2525 129.539 39.771C129.869 40.2895 130.42 40.5487 131.193 40.5487C131.588 40.5487 132.032 40.5159 132.526 40.4504H132.52ZM122.722 31.1063C122.722 25.9009 118.623 22.227 113.675 22.227C107.736 22.227 105.036 27.048 105.036 31.3804C105.036 36.1806 108.728 39.9855 113.675 39.9855C118.623 39.9855 122.722 36.3087 122.722 31.1063ZM197.994 40.4504V45.912C197.044 46.3291 195.828 46.5466 194.689 46.5466C190.994 46.5466 188.756 44.2821 188.195 41.5647L188.213 41.4992C186.389 45.0956 182.143 46.5466 178.22 46.5466C169.59 46.5466 163.549 39.7889 163.549 31.3804C163.549 22.9719 169.881 15.943 178.22 15.943C182.568 15.943 185.66 17.698 187.56 21.0709V21.062V16.5777H194.518V37.1489C194.518 38.3795 194.683 39.2525 195.013 39.771C195.342 40.2895 195.893 40.5487 196.667 40.5487C197.062 40.5487 197.506 40.5159 198 40.4504H197.994ZM188.195 31.1063C188.195 25.9009 184.096 22.227 179.149 22.227C173.21 22.227 170.51 27.048 170.51 31.3804C170.51 36.1806 174.202 39.9855 179.149 39.9855C184.096 39.9855 188.195 36.3087 188.195 31.1063Z" fill="white"/>
</g>
<defs>
<clipPath id="clip0_232_2762">
<rect width="198" height="56" fill="white"/>
</clipPath>
</defs>
</svg>
